isim.log
ISim log file
Running: I:\Projects\P5\P5_361_F19_tf_isim_beh.exe -intstyle ise -gui -tclbatch isim.cmd -wdb I:/Projects/P5/P5_361_F19_tf_isim_beh.wdb 
ISim P.20131013 (signature 0x7708f090)
WARNING: A WEBPACK license was found.
WARNING: Please use Xilinx License Configuration Manager to check out a full ISim license.
WARNING: ISim will run in Lite mode. Please refer to the ISim documentation for more information on the differences between the Lite and the Full version.
This is a Lite version of ISim.
Time resolution is 1 ps
# onerror resume
# wave add /
# run 30 ms
Simulator is doing circuit initialization process.
Verifying all requirements...
Finished circuit initialization process.
Requirement 1 Correct.
Reset shall bring the VGA Synchronization circuit to a known state with all outputs inactive.
Expected: 4095 Got: 4080 x:  32 y:   0
Expected: 4095 Got:   15 x:  33 y:   0
Expected: 4095 Got:   15 x:  34 y:   0
Expected: 4095 Got:   15 x:  35 y:   0
Expected: 4095 Got: 4080 x:  32 y:   1
Expected: 4095 Got:   15 x:  33 y:   1
Expected: 4095 Got:   15 x:  34 y:   1
Expected: 4095 Got:   15 x:  35 y:   1
Expected: 4095 Got: 4080 x:  32 y:   2
Expected: 4095 Got:   15 x:  33 y:   2
Expected: 4095 Got:   15 x:  34 y:   2
Expected: 4095 Got:   15 x:  35 y:   2
Expected: 4095 Got: 4080 x:  32 y:   3
Expected: 4095 Got:   15 x:  33 y:   3
Expected: 4095 Got:   15 x:  34 y:   3
Expected: 4095 Got:   15 x:  35 y:   3
Expected: 4095 Got: 4080 x:  32 y:   4
Expected: 4095 Got:   15 x:  33 y:   4
Expected: 4095 Got:   15 x:  34 y:   4
Expected: 4095 Got:   15 x:  35 y:   4
Expected: 4095 Got: 4080 x:  32 y:   5
Expected: 4095 Got:   15 x:  33 y:   5
Expected: 4095 Got:   15 x:  34 y:   5
Expected: 4095 Got:   15 x:  35 y:   5
Expected: 4095 Got: 4080 x:  32 y:   6
Expected: 4095 Got:   15 x:  33 y:   6
Expected: 4095 Got:   15 x:  34 y:   6
Expected: 4095 Got:   15 x:  35 y:   6
Expected: 4095 Got: 4080 x:  32 y:   7
Expected: 4095 Got:   15 x:  33 y:   7
Expected: 4095 Got:   15 x:  34 y:   7
Expected: 4095 Got:   15 x:  35 y:   7
Expected: 4095 Got: 4080 x:  32 y:   8
Expected: 4095 Got:   15 x:  33 y:   8
Expected: 4095 Got:   15 x:  34 y:   8
Expected: 4095 Got:   15 x:  35 y:   8
Expected: 4095 Got: 4080 x:  32 y:   9
Expected: 4095 Got:   15 x:  33 y:   9
Expected: 4095 Got:   15 x:  34 y:   9
Expected: 4095 Got:   15 x:  35 y:   9
Expected: 4095 Got: 4080 x:  32 y:  10
Expected: 4095 Got:   15 x:  33 y:  10
Expected: 4095 Got:   15 x:  34 y:  10
Expected: 4095 Got:   15 x:  35 y:  10
Expected: 4095 Got: 4080 x:  32 y:  11
Expected: 4095 Got:   15 x:  33 y:  11
Expected: 4095 Got:   15 x:  34 y:  11
Expected: 4095 Got:   15 x:  35 y:  11
Expected: 4095 Got: 4080 x:  32 y:  12
Expected: 4095 Got:   15 x:  33 y:  12
Expected: 4095 Got:   15 x:  34 y:  12
Expected: 4095 Got:   15 x:  35 y:  12
Expected: 4095 Got: 4080 x:  32 y:  13
Expected: 4095 Got:   15 x:  33 y:  13
Expected: 4095 Got:   15 x:  34 y:  13
Expected: 4095 Got:   15 x:  35 y:  13
Expected: 4095 Got: 4080 x:  32 y:  14
Expected: 4095 Got:   15 x:  33 y:  14
Expected: 4095 Got:   15 x:  34 y:  14
Expected: 4095 Got:   15 x:  35 y:  14
Expected: 4095 Got: 4080 x:  32 y:  15
Expected: 4095 Got:   15 x:  33 y:  15
Expected: 4095 Got:   15 x:  34 y:  15
Expected: 4095 Got:   15 x:  35 y:  15
Expected: 4095 Got: 4080 x:  32 y:  16
Expected: 4095 Got:   15 x:  33 y:  16
Expected: 4095 Got:   15 x:  34 y:  16
Expected: 4095 Got:   15 x:  35 y:  16
Expected: 4095 Got: 4080 x:  32 y:  17
Expected: 4095 Got:   15 x:  33 y:  17
Expected: 4095 Got:   15 x:  34 y:  17
Expected: 4095 Got:   15 x:  35 y:  17
Expected: 4095 Got: 4080 x:  32 y:  18
Expected: 4095 Got:   15 x:  33 y:  18
Expected: 4095 Got:   15 x:  34 y:  18
Expected: 4095 Got:   15 x:  35 y:  18
Expected: 4095 Got: 4080 x:  32 y:  19
Expected: 4095 Got:   15 x:  33 y:  19
Expected: 4095 Got:   15 x:  34 y:  19
Expected: 4095 Got:   15 x:  35 y:  19
Expected: 4095 Got: 4080 x:  32 y:  20
Expected: 4095 Got:   15 x:  33 y:  20
Expected: 4095 Got:   15 x:  34 y:  20
Expected: 4095 Got:   15 x:  35 y:  20
Expected: 4095 Got: 4080 x:  32 y:  21
Expected: 4095 Got:   15 x:  33 y:  21
Expected: 4095 Got:   15 x:  34 y:  21
Expected: 4095 Got:   15 x:  35 y:  21
Expected: 4095 Got: 4080 x:  32 y:  22
Expected: 4095 Got:   15 x:  33 y:  22
Expected: 4095 Got:   15 x:  34 y:  22
Expected: 4095 Got:   15 x:  35 y:  22
Expected: 4095 Got: 4080 x:  32 y:  23
Expected: 4095 Got:   15 x:  33 y:  23
Expected: 4095 Got:   15 x:  34 y:  23
Expected: 4095 Got:   15 x:  35 y:  23
Expected: 4095 Got: 4080 x:  32 y:  24
Expected: 4095 Got:   15 x:  33 y:  24
Expected: 4095 Got:   15 x:  34 y:  24
Expected: 4095 Got:   15 x:  35 y:  24
Expected: 4095 Got: 4080 x:  32 y:  25
Expected: 4095 Got:   15 x:  33 y:  25
Expected: 4095 Got:   15 x:  34 y:  25
Expected: 4095 Got:   15 x:  35 y:  25
Expected: 4095 Got: 4080 x:  32 y:  26
Expected: 4095 Got:   15 x:  33 y:  26
Expected: 4095 Got:   15 x:  34 y:  26
Expected: 4095 Got:   15 x:  35 y:  26
Expected: 4095 Got: 4080 x:  32 y:  27
Expected: 4095 Got:   15 x:  33 y:  27
Expected: 4095 Got:   15 x:  34 y:  27
Expected: 4095 Got:   15 x:  35 y:  27
Expected: 4095 Got: 4080 x:  32 y:  28
Expected: 4095 Got:   15 x:  33 y:  28
Expected: 4095 Got:   15 x:  34 y:  28
Expected: 4095 Got:   15 x:  35 y:  28
Expected: 4095 Got: 4080 x:  32 y:  29
Expected: 4095 Got:   15 x:  33 y:  29
Expected: 4095 Got:   15 x:  34 y:  29
Expected: 4095 Got:   15 x:  35 y:  29
Expected: 4095 Got: 4080 x:  32 y:  30
Expected: 4095 Got:   15 x:  33 y:  30
Expected: 4095 Got:   15 x:  34 y:  30
Expected: 4095 Got:   15 x:  35 y:  30
Expected: 4095 Got: 4080 x:  32 y:  31
Expected: 4095 Got:   15 x:  33 y:  31
Expected: 4095 Got:   15 x:  34 y:  31
Expected: 4095 Got:   15 x:  35 y:  31
Expected: 4095 Got: 4080 x:  32 y:  32
Expected: 4095 Got:   15 x:  33 y:  32
Expected: 4095 Got:   15 x:  34 y:  32
Expected: 4095 Got:   15 x:  35 y:  32
Expected: 4095 Got: 4080 x:  32 y:  33
Expected: 4095 Got:   15 x:  33 y:  33
Expected: 4095 Got:   15 x:  34 y:  33
Expected: 4095 Got:   15 x:  35 y:  33
Expected: 4095 Got: 4080 x:  32 y:  34
Expected: 4095 Got:   15 x:  33 y:  34
Expected: 4095 Got:   15 x:  34 y:  34
Expected: 4095 Got:   15 x:  35 y:  34
Expected: 4095 Got: 4080 x:  32 y:  35
Expected: 4095 Got:   15 x:  33 y:  35
Expected: 4095 Got:   15 x:  34 y:  35
Expected: 4095 Got:   15 x:  35 y:  35
Expected: 4095 Got: 4080 x:  32 y:  36
Expected: 4095 Got:   15 x:  33 y:  36
Expected: 4095 Got:   15 x:  34 y:  36
Expected: 4095 Got:   15 x:  35 y:  36
Expected: 4095 Got: 4080 x:  32 y:  37
Expected: 4095 Got:   15 x:  33 y:  37
Expected: 4095 Got:   15 x:  34 y:  37
Expected: 4095 Got:   15 x:  35 y:  37
Expected: 4095 Got: 4080 x:  32 y:  38
Expected: 4095 Got:   15 x:  33 y:  38
Expected: 4095 Got:   15 x:  34 y:  38
Expected: 4095 Got:   15 x:  35 y:  38
Expected: 4095 Got: 4080 x:  32 y:  39
Expected: 4095 Got:   15 x:  33 y:  39
Expected: 4095 Got:   15 x:  34 y:  39
Expected: 4095 Got:   15 x:  35 y:  39
Expected: 4095 Got: 4080 x:  32 y:  40
Expected: 4095 Got:   15 x:  33 y:  40
Expected: 4095 Got:   15 x:  34 y:  40
Expected: 4095 Got:   15 x:  35 y:  40
Expected: 4095 Got: 4080 x:  32 y:  41
Expected: 4095 Got:   15 x:  33 y:  41
Expected: 4095 Got:   15 x:  34 y:  41
Expected: 4095 Got:   15 x:  35 y:  41
Expected: 4095 Got: 4080 x:  32 y:  42
Expected: 4095 Got:   15 x:  33 y:  42
Expected: 4095 Got:   15 x:  34 y:  42
Expected: 4095 Got:   15 x:  35 y:  42
Expected: 4095 Got: 4080 x:  32 y:  43
Expected: 4095 Got:   15 x:  33 y:  43
Expected: 4095 Got:   15 x:  34 y:  43
Expected: 4095 Got:   15 x:  35 y:  43
Expected: 4095 Got: 4080 x:  32 y:  44
Expected: 4095 Got:   15 x:  33 y:  44
Expected: 4095 Got:   15 x:  34 y:  44
Expected: 4095 Got:   15 x:  35 y:  44
Expected: 4095 Got: 4080 x:  32 y:  45
Expected: 4095 Got:   15 x:  33 y:  45
Expected: 4095 Got:   15 x:  34 y:  45
Expected: 4095 Got:   15 x:  35 y:  45
Expected: 4095 Got: 4080 x:  32 y:  46
Expected: 4095 Got:   15 x:  33 y:  46
Expected: 4095 Got:   15 x:  34 y:  46
Expected: 4095 Got:   15 x:  35 y:  46
Expected: 4095 Got: 4080 x:  32 y:  47
Expected: 4095 Got:   15 x:  33 y:  47
Expected: 4095 Got:   15 x:  34 y:  47
Expected: 4095 Got:   15 x:  35 y:  47
Expected: 4095 Got: 4080 x:  32 y:  48
Expected: 4095 Got:   15 x:  33 y:  48
Expected: 4095 Got:   15 x:  34 y:  48
Expected: 4095 Got:   15 x:  35 y:  48
Expected: 4095 Got: 4080 x:  32 y:  49
Expected: 4095 Got:   15 x:  33 y:  49
Expected: 4095 Got:   15 x:  34 y:  49
Expected: 4095 Got:   15 x:  35 y:  49
Expected: 4095 Got: 4080 x:  32 y:  50
Expected: 4095 Got:   15 x:  33 y:  50
Expected: 4095 Got:   15 x:  34 y:  50
Expected: 4095 Got:   15 x:  35 y:  50
Expected: 4095 Got: 4080 x:  32 y:  51
Expected: 4095 Got:   15 x:  33 y:  51
Expected: 4095 Got:   15 x:  34 y:  51
Expected: 4095 Got:   15 x:  35 y:  51
Expected: 4095 Got: 4080 x:  32 y:  52
Expected: 4095 Got:   15 x:  33 y:  52
Expected: 4095 Got:   15 x:  34 y:  52
Expected: 4095 Got:   15 x:  35 y:  52
Expected: 4095 Got: 4080 x:  32 y:  53
Expected: 4095 Got:   15 x:  33 y:  53
Expected: 4095 Got:   15 x:  34 y:  53
Expected: 4095 Got:   15 x:  35 y:  53
Expected: 4095 Got: 4080 x:  32 y:  54
Expected: 4095 Got:   15 x:  33 y:  54
Expected: 4095 Got:   15 x:  34 y:  54
Expected: 4095 Got:   15 x:  35 y:  54
Expected: 4095 Got: 4080 x:  32 y:  55
Expected: 4095 Got:   15 x:  33 y:  55
Expected: 4095 Got:   15 x:  34 y:  55
Expected: 4095 Got:   15 x:  35 y:  55
Expected: 4095 Got: 4080 x:  32 y:  56
Expected: 4095 Got:   15 x:  33 y:  56
Expected: 4095 Got:   15 x:  34 y:  56
Expected: 4095 Got:   15 x:  35 y:  56
Expected: 4095 Got: 4080 x:  32 y:  57
Expected: 4095 Got:   15 x:  33 y:  57
Expected: 4095 Got:   15 x:  34 y:  57
Expected: 4095 Got:   15 x:  35 y:  57
Expected: 4095 Got: 4080 x:  32 y:  58
Expected: 4095 Got:   15 x:  33 y:  58
Expected: 4095 Got:   15 x:  34 y:  58
Expected: 4095 Got:   15 x:  35 y:  58
Expected: 4095 Got: 4080 x:  32 y:  59
Expected: 4095 Got:   15 x:  33 y:  59
Expected: 4095 Got:   15 x:  34 y:  59
Expected: 4095 Got:   15 x:  35 y:  59
Expected: 4095 Got: 4080 x:  32 y:  60
Expected: 4095 Got:   15 x:  33 y:  60
Expected: 4095 Got:   15 x:  34 y:  60
Expected: 4095 Got:   15 x:  35 y:  60
Expected: 4095 Got: 4080 x:  32 y:  61
Expected: 4095 Got:   15 x:  33 y:  61
Expected: 4095 Got:   15 x:  34 y:  61
Expected: 4095 Got:   15 x:  35 y:  61
Expected: 4095 Got: 4080 x:  32 y:  62
Expected: 4095 Got:   15 x:  33 y:  62
Expected: 4095 Got:   15 x:  34 y:  62
Expected: 4095 Got:   15 x:  35 y:  62
Expected: 4095 Got: 4080 x:  32 y:  63
Expected: 4095 Got:   15 x:  33 y:  63
Expected: 4095 Got:   15 x:  34 y:  63
Expected: 4095 Got:   15 x:  35 y:  63
Expected: 4095 Got: 4080 x:  32 y:  64
Expected: 4095 Got:   15 x:  33 y:  64
Expected: 4095 Got:   15 x:  34 y:  64
Expected: 4095 Got:   15 x:  35 y:  64
Expected: 4095 Got: 4080 x:  32 y:  65
Expected: 4095 Got:   15 x:  33 y:  65
Expected: 4095 Got:   15 x:  34 y:  65
Expected: 4095 Got:   15 x:  35 y:  65
Expected: 4095 Got: 4080 x:  32 y:  66
Expected: 4095 Got:   15 x:  33 y:  66
Expected: 4095 Got:   15 x:  34 y:  66
Expected: 4095 Got:   15 x:  35 y:  66
Expected: 4095 Got: 4080 x:  32 y:  67
Expected: 4095 Got:   15 x:  33 y:  67
Expected: 4095 Got:   15 x:  34 y:  67
Expected: 4095 Got:   15 x:  35 y:  67
Expected: 4095 Got: 4080 x:  32 y:  68
Expected: 4095 Got:   15 x:  33 y:  68
Expected: 4095 Got:   15 x:  34 y:  68
Expected: 4095 Got:   15 x:  35 y:  68
Expected: 4095 Got: 4080 x:  32 y:  69
Expected: 4095 Got:   15 x:  33 y:  69
Expected: 4095 Got:   15 x:  34 y:  69
Expected: 4095 Got:   15 x:  35 y:  69
Expected: 4095 Got: 4080 x:  32 y:  70
Expected: 4095 Got:   15 x:  33 y:  70
Expected: 4095 Got:   15 x:  34 y:  70
Expected: 4095 Got:   15 x:  35 y:  70
Expected: 4095 Got: 4080 x:  32 y:  71
Expected: 4095 Got:   15 x:  33 y:  71
Expected: 4095 Got:   15 x:  34 y:  71
Expected: 4095 Got:   15 x:  35 y:  71
Expected: 4095 Got: 4080 x:  32 y:  72
Expected: 4095 Got:   15 x:  33 y:  72
Expected: 4095 Got:   15 x:  34 y:  72
Expected: 4095 Got:   15 x:  35 y:  72
Expected: 4095 Got: 4080 x:  32 y:  73
Expected: 4095 Got:   15 x:  33 y:  73
Expected: 4095 Got:   15 x:  34 y:  73
Expected: 4095 Got:   15 x:  35 y:  73
Expected: 4095 Got: 4080 x:  32 y:  74
Expected: 4095 Got:   15 x:  33 y:  74
Expected: 4095 Got:   15 x:  34 y:  74
Expected: 4095 Got:   15 x:  35 y:  74
Expected: 4095 Got: 4080 x:  32 y:  75
Expected: 4095 Got:   15 x:  33 y:  75
Expected: 4095 Got:   15 x:  34 y:  75
Expected: 4095 Got:   15 x:  35 y:  75
Expected: 4095 Got: 4080 x:  32 y:  76
Expected: 4095 Got:   15 x:  33 y:  76
Expected: 4095 Got:   15 x:  34 y:  76
Expected: 4095 Got:   15 x:  35 y:  76
Expected: 4095 Got: 4080 x:  32 y:  77
Expected: 4095 Got:   15 x:  33 y:  77
Expected: 4095 Got:   15 x:  34 y:  77
Expected: 4095 Got:   15 x:  35 y:  77
Expected: 4095 Got: 4080 x:  32 y:  78
Expected: 4095 Got:   15 x:  33 y:  78
Expected: 4095 Got:   15 x:  34 y:  78
Expected: 4095 Got:   15 x:  35 y:  78
Expected: 4095 Got: 4080 x:  32 y:  79
Expected: 4095 Got:   15 x:  33 y:  79
Expected: 4095 Got:   15 x:  34 y:  79
Expected: 4095 Got:   15 x:  35 y:  79
Expected: 4095 Got: 4080 x:  32 y:  80
Expected: 4095 Got:   15 x:  33 y:  80
Expected: 4095 Got:   15 x:  34 y:  80
Expected: 4095 Got:   15 x:  35 y:  80
Expected: 4095 Got: 4080 x:  32 y:  81
Expected: 4095 Got:   15 x:  33 y:  81
Expected: 4095 Got:   15 x:  34 y:  81
Expected: 4095 Got:   15 x:  35 y:  81
Expected: 4095 Got: 4080 x:  32 y:  82
Expected: 4095 Got:   15 x:  33 y:  82
Expected: 4095 Got:   15 x:  34 y:  82
Expected: 4095 Got:   15 x:  35 y:  82
Expected: 4095 Got: 4080 x:  32 y:  83
Expected: 4095 Got:   15 x:  33 y:  83
Expected: 4095 Got:   15 x:  34 y:  83
Expected: 4095 Got:   15 x:  35 y:  83
Expected: 4095 Got: 4080 x:  32 y:  84
Expected: 4095 Got:   15 x:  33 y:  84
Expected: 4095 Got:   15 x:  34 y:  84
Expected: 4095 Got:   15 x:  35 y:  84
Expected: 4095 Got: 4080 x:  32 y:  85
Expected: 4095 Got:   15 x:  33 y:  85
Expected: 4095 Got:   15 x:  34 y:  85
Expected: 4095 Got:   15 x:  35 y:  85
Expected: 4095 Got: 4080 x:  32 y:  86
Expected: 4095 Got:   15 x:  33 y:  86
Expected: 4095 Got:   15 x:  34 y:  86
Expected: 4095 Got:   15 x:  35 y:  86
Expected: 4095 Got: 4080 x:  32 y:  87
Expected: 4095 Got:   15 x:  33 y:  87
Expected: 4095 Got:   15 x:  34 y:  87
Expected: 4095 Got:   15 x:  35 y:  87
Expected: 4095 Got: 4080 x:  32 y:  88
Expected: 4095 Got:   15 x:  33 y:  88
Expected: 4095 Got:   15 x:  34 y:  88
Expected: 4095 Got:   15 x:  35 y:  88
Expected: 4095 Got: 4080 x:  32 y:  89
Expected: 4095 Got:   15 x:  33 y:  89
Expected: 4095 Got:   15 x:  34 y:  89
Expected: 4095 Got:   15 x:  35 y:  89
Expected: 4095 Got: 4080 x:  32 y:  90
Expected: 4095 Got:   15 x:  33 y:  90
Expected: 4095 Got:   15 x:  34 y:  90
Expected: 4095 Got:   15 x:  35 y:  90
Expected: 4095 Got: 4080 x:  32 y:  91
Expected: 4095 Got:   15 x:  33 y:  91
Expected: 4095 Got:   15 x:  34 y:  91
Expected: 4095 Got:   15 x:  35 y:  91
Expected: 4095 Got: 4080 x:  32 y:  92
Expected: 4095 Got:   15 x:  33 y:  92
Expected: 4095 Got:   15 x:  34 y:  92
Expected: 4095 Got:   15 x:  35 y:  92
Expected: 4095 Got: 4080 x:  32 y:  93
Expected: 4095 Got:   15 x:  33 y:  93
Expected: 4095 Got:   15 x:  34 y:  93
Expected: 4095 Got:   15 x:  35 y:  93
Expected: 4095 Got: 4080 x:  32 y:  94
Expected: 4095 Got:   15 x:  33 y:  94
Expected: 4095 Got:   15 x:  34 y:  94
Expected: 4095 Got:   15 x:  35 y:  94
Expected: 4095 Got: 4080 x:  32 y:  95
Expected: 4095 Got:   15 x:  33 y:  95
Expected: 4095 Got:   15 x:  34 y:  95
Expected: 4095 Got:   15 x:  35 y:  95
Expected: 4095 Got: 4080 x:  32 y:  96
Expected: 4095 Got:   15 x:  33 y:  96
Expected: 4095 Got:   15 x:  34 y:  96
Expected: 4095 Got:   15 x:  35 y:  96
Expected: 4095 Got: 4080 x:  32 y:  97
Expected: 4095 Got:   15 x:  33 y:  97
Expected: 4095 Got:   15 x:  34 y:  97
Expected: 4095 Got:   15 x:  35 y:  97
Expected: 4095 Got: 4080 x:  32 y:  98
Expected: 4095 Got:   15 x:  33 y:  98
Expected: 4095 Got:   15 x:  34 y:  98
Expected: 4095 Got:   15 x:  35 y:  98
Expected: 4095 Got: 4080 x:  32 y:  99
Expected: 4095 Got:   15 x:  33 y:  99
Expected: 4095 Got:   15 x:  34 y:  99
Expected: 4095 Got:   15 x:  35 y:  99
Expected: 4095 Got: 4080 x:  32 y: 100
Expected: 4095 Got:   15 x:  33 y: 100
Expected: 4095 Got:   15 x:  34 y: 100
Expected: 4095 Got:   15 x:  35 y: 100
Expected: 4095 Got: 4080 x:  32 y: 101
Expected: 4095 Got:   15 x:  33 y: 101
Expected: 4095 Got:   15 x:  34 y: 101
Expected: 4095 Got:   15 x:  35 y: 101
Expected: 4095 Got: 4080 x:  32 y: 102
Expected: 4095 Got:   15 x:  33 y: 102
Expected: 4095 Got:   15 x:  34 y: 102
Expected: 4095 Got:   15 x:  35 y: 102
Expected: 4095 Got: 4080 x:  32 y: 103
Expected: 4095 Got:   15 x:  33 y: 103
Expected: 4095 Got:   15 x:  34 y: 103
Expected: 4095 Got:   15 x:  35 y: 103
Expected: 4095 Got: 4080 x:  32 y: 104
Expected: 4095 Got:   15 x:  33 y: 104
Expected: 4095 Got:   15 x:  34 y: 104
Expected: 4095 Got:   15 x:  35 y: 104
Expected: 4095 Got: 4080 x:  32 y: 105
Expected: 4095 Got:   15 x:  33 y: 105
Expected: 4095 Got:   15 x:  34 y: 105
Expected: 4095 Got:   15 x:  35 y: 105
Expected: 4095 Got: 4080 x:  32 y: 106
Expected: 4095 Got:   15 x:  33 y: 106
Expected: 4095 Got:   15 x:  34 y: 106
Expected: 4095 Got:   15 x:  35 y: 106
Expected: 4095 Got: 4080 x:  32 y: 107
Expected: 4095 Got:   15 x:  33 y: 107
Expected: 4095 Got:   15 x:  34 y: 107
Expected: 4095 Got:   15 x:  35 y: 107
Expected: 4095 Got: 4080 x:  32 y: 108
Expected: 4095 Got:   15 x:  33 y: 108
Expected: 4095 Got:   15 x:  34 y: 108
Expected: 4095 Got:   15 x:  35 y: 108
Expected: 4095 Got: 4080 x:  32 y: 109
Expected: 4095 Got:   15 x:  33 y: 109
Expected: 4095 Got:   15 x:  34 y: 109
Expected: 4095 Got:   15 x:  35 y: 109
Expected: 4095 Got: 4080 x:  32 y: 110
Expected: 4095 Got:   15 x:  33 y: 110
Expected: 4095 Got:   15 x:  34 y: 110
Expected: 4095 Got:   15 x:  35 y: 110
Expected: 4095 Got: 4080 x:  32 y: 111
Expected: 4095 Got:   15 x:  33 y: 111
Expected: 4095 Got:   15 x:  34 y: 111
Expected: 4095 Got:   15 x:  35 y: 111
Expected: 4095 Got: 4080 x:  32 y: 112
Expected: 4095 Got:   15 x:  33 y: 112
Expected: 4095 Got:   15 x:  34 y: 112
Expected: 4095 Got:   15 x:  35 y: 112
Expected: 4095 Got: 4080 x:  32 y: 113
Expected: 4095 Got:   15 x:  33 y: 113
Expected: 4095 Got:   15 x:  34 y: 113
Expected: 4095 Got:   15 x:  35 y: 113
Expected: 4095 Got: 4080 x:  32 y: 114
Expected: 4095 Got:   15 x:  33 y: 114
Expected: 4095 Got:   15 x:  34 y: 114
Expected: 4095 Got:   15 x:  35 y: 114
Expected: 4095 Got: 4080 x:  32 y: 115
Expected: 4095 Got:   15 x:  33 y: 115
Expected: 4095 Got:   15 x:  34 y: 115
Expected: 4095 Got:   15 x:  35 y: 115
Expected: 4095 Got: 4080 x:  32 y: 116
Expected: 4095 Got:   15 x:  33 y: 116
Expected: 4095 Got:   15 x:  34 y: 116
Expected: 4095 Got:   15 x:  35 y: 116
Expected: 4095 Got: 4080 x:  32 y: 117
Expected: 4095 Got:   15 x:  33 y: 117
Expected: 4095 Got:   15 x:  34 y: 117
Expected: 4095 Got:   15 x:  35 y: 117
Expected: 4095 Got: 4080 x:  32 y: 118
Expected: 4095 Got:   15 x:  33 y: 118
Expected: 4095 Got:   15 x:  34 y: 118
Expected: 4095 Got:   15 x:  35 y: 118
Expected: 4095 Got: 4080 x:  32 y: 119
Expected: 4095 Got:   15 x:  33 y: 119
Expected: 4095 Got:   15 x:  34 y: 119
Expected: 4095 Got:   15 x:  35 y: 119
Expected: 4095 Got: 4080 x:  32 y: 120
Expected: 4095 Got:   15 x:  33 y: 120
Expected: 4095 Got:   15 x:  34 y: 120
Expected: 4095 Got:   15 x:  35 y: 120
Expected: 4095 Got: 4080 x:  32 y: 121
Expected: 4095 Got:   15 x:  33 y: 121
Expected: 4095 Got:   15 x:  34 y: 121
Expected: 4095 Got:   15 x:  35 y: 121
Expected: 4095 Got: 4080 x:  32 y: 122
Expected: 4095 Got:   15 x:  33 y: 122
Expected: 4095 Got:   15 x:  34 y: 122
Expected: 4095 Got:   15 x:  35 y: 122
Expected: 4095 Got: 4080 x:  32 y: 123
Expected: 4095 Got:   15 x:  33 y: 123
Expected: 4095 Got:   15 x:  34 y: 123
Expected: 4095 Got:   15 x:  35 y: 123
Expected: 4095 Got: 4080 x:  32 y: 124
Expected: 4095 Got:   15 x:  33 y: 124
Expected: 4095 Got:   15 x:  34 y: 124
Expected: 4095 Got:   15 x:  35 y: 124
Expected: 4095 Got: 4080 x:  32 y: 125
Expected: 4095 Got:   15 x:  33 y: 125
Expected: 4095 Got:   15 x:  34 y: 125
Expected: 4095 Got:   15 x:  35 y: 125
Expected: 4095 Got: 4080 x:  32 y: 126
Expected: 4095 Got:   15 x:  33 y: 126
Expected: 4095 Got:   15 x:  34 y: 126
Expected: 4095 Got:   15 x:  35 y: 126
Expected: 4095 Got: 4080 x:  32 y: 127
Expected: 4095 Got:   15 x:  33 y: 127
Expected: 4095 Got:   15 x:  34 y: 127
Expected: 4095 Got:   15 x:  35 y: 127
Expected: 4095 Got: 4080 x:  32 y: 128
Expected: 4095 Got:   15 x:  33 y: 128
Expected: 4095 Got:   15 x:  34 y: 128
Expected: 4095 Got:   15 x:  35 y: 128
Expected: 4095 Got: 4080 x:  32 y: 129
Expected: 4095 Got:   15 x:  33 y: 129
Expected: 4095 Got:   15 x:  34 y: 129
Expected: 4095 Got:   15 x:  35 y: 129
Expected: 4095 Got: 4080 x:  32 y: 130
Expected: 4095 Got:   15 x:  33 y: 130
Expected: 4095 Got:   15 x:  34 y: 130
Expected: 4095 Got:   15 x:  35 y: 130
Expected: 4095 Got: 4080 x:  32 y: 131
Expected: 4095 Got:   15 x:  33 y: 131
Expected: 4095 Got:   15 x:  34 y: 131
Expected: 4095 Got:   15 x:  35 y: 131
Expected: 4095 Got: 4080 x:  32 y: 132
Expected: 4095 Got:   15 x:  33 y: 132
Expected: 4095 Got:   15 x:  34 y: 132
Expected: 4095 Got:   15 x:  35 y: 132
Expected: 4095 Got: 4080 x:  32 y: 133
Expected: 4095 Got:   15 x:  33 y: 133
Expected: 4095 Got:   15 x:  34 y: 133
Expected: 4095 Got:   15 x:  35 y: 133
Expected: 4095 Got: 4080 x:  32 y: 134
Expected: 4095 Got:   15 x:  33 y: 134
Expected: 4095 Got:   15 x:  34 y: 134
Expected: 4095 Got:   15 x:  35 y: 134
Expected: 4095 Got: 4080 x:  32 y: 135
Expected: 4095 Got:   15 x:  33 y: 135
Expected: 4095 Got:   15 x:  34 y: 135
Expected: 4095 Got:   15 x:  35 y: 135
Expected: 4095 Got: 4080 x:  32 y: 136
Expected: 4095 Got:   15 x:  33 y: 136
Expected: 4095 Got:   15 x:  34 y: 136
Expected: 4095 Got:   15 x:  35 y: 136
Expected: 4095 Got: 4080 x:  32 y: 137
Expected: 4095 Got:   15 x:  33 y: 137
Expected: 4095 Got:   15 x:  34 y: 137
Expected: 4095 Got:   15 x:  35 y: 137
Expected: 4095 Got: 4080 x:  32 y: 138
Expected: 4095 Got:   15 x:  33 y: 138
Expected: 4095 Got:   15 x:  34 y: 138
Expected: 4095 Got:   15 x:  35 y: 138
Expected: 4095 Got: 4080 x:  32 y: 139
Expected: 4095 Got:   15 x:  33 y: 139
Expected: 4095 Got:   15 x:  34 y: 139
Expected: 4095 Got:   15 x:  35 y: 139
Expected: 4095 Got: 4080 x:  32 y: 140
Expected: 4095 Got:   15 x:  33 y: 140
Expected: 4095 Got:   15 x:  34 y: 140
Expected: 4095 Got:   15 x:  35 y: 140
Expected: 4095 Got: 4080 x:  32 y: 141
Expected: 4095 Got:   15 x:  33 y: 141
Expected: 4095 Got:   15 x:  34 y: 141
Expected: 4095 Got:   15 x:  35 y: 141
Expected: 4095 Got: 4080 x:  32 y: 142
Expected: 4095 Got:   15 x:  33 y: 142
Expected: 4095 Got:   15 x:  34 y: 142
Expected: 4095 Got:   15 x:  35 y: 142
Expected: 4095 Got: 4080 x:  32 y: 143
Expected: 4095 Got:   15 x:  33 y: 143
Expected: 4095 Got:   15 x:  34 y: 143
Expected: 4095 Got:   15 x:  35 y: 143
Expected: 4095 Got: 4080 x:  32 y: 144
Expected: 4095 Got:   15 x:  33 y: 144
Expected: 4095 Got:   15 x:  34 y: 144
Expected: 4095 Got:   15 x:  35 y: 144
Expected: 4095 Got: 4080 x:  32 y: 145
Expected: 4095 Got:   15 x:  33 y: 145
Expected: 4095 Got:   15 x:  34 y: 145
Expected: 4095 Got:   15 x:  35 y: 145
Expected: 4095 Got: 4080 x:  32 y: 146
Expected: 4095 Got:   15 x:  33 y: 146
Expected: 4095 Got:   15 x:  34 y: 146
Expected: 4095 Got:   15 x:  35 y: 146
Expected: 4095 Got: 4080 x:  32 y: 147
Expected: 4095 Got:   15 x:  33 y: 147
Expected: 4095 Got:   15 x:  34 y: 147
Expected: 4095 Got:   15 x:  35 y: 147
Expected: 4095 Got: 4080 x:  32 y: 148
Expected: 4095 Got:   15 x:  33 y: 148
Expected: 4095 Got:   15 x:  34 y: 148
Expected: 4095 Got:   15 x:  35 y: 148
Expected: 4095 Got: 4080 x:  32 y: 149
Expected: 4095 Got:   15 x:  33 y: 149
Expected: 4095 Got:   15 x:  34 y: 149
Expected: 4095 Got:   15 x:  35 y: 149
Expected: 4095 Got: 4080 x:  32 y: 150
Expected: 4095 Got:   15 x:  33 y: 150
Expected: 4095 Got:   15 x:  34 y: 150
Expected: 4095 Got:   15 x:  35 y: 150
